<svg fill="none" viewBox="0 0 400 120" width="400" height="120" xmlns="http://www.w3.org/2000/svg">
    <foreignObject width="100%" height="100%">
        <div xmlns="http://www.w3.org/1999/xhtml">

<style>
    pre { position:absolute; display:block; margin:0px; padding:0px; font-size:24px; font-family:monospace; color:#000000; }

    #c2 { animation:a2 4s linear 0s infinite normal; }
    @keyframes a2 { 0% {top:3px;} 15% {top:0px;} 20% {top:0px;} 40% {top:3px;} 100% {top:3px;} }

    #c3 { animation:a3 4s linear 0s infinite normal; }
    @keyframes a3 { 0% {top:0px;} 15% {top:-3px;} 30% {top:0px;} 100% {top:0px;} }

    #c4 { animation:a4 4s ease-out 0.2s infinite normal; }
    @keyframes a4 { 0% {left:-25px;} 15% {left:-5px;} 100% {left:-25px;} }
</style>

<pre id="c1">

               „    ∫
 |▔▔▔▔▔▔▔▔▔▔▔▔▔▔▔▔▔▔▔▔▔▔▔▔▔
</pre>
<pre id="c2">
         /\„/\————„

</pre>
<pre id="c3">

        (-.-  )    )
</pre>
<pre id="c4">

       z
</pre>

        </div>
    </foreignObject>
</svg>
